read => r1
loadI 0 => r0
subI r1, 1 => r4
cmp_LE r0, r4 => r5
cbr r5 -> L0, L1
L0: nop
loadI 0 => r6
subI r0, 0 => r7
add r6, r7 => r6
multI r6, 4 => r6
loadI 20 => r8
add r8, r6 => r8
read => r9
store r9 => r8
addI r0, 1 => r0
cmp_LE r0, r4 => r10
cbr r10 -> L0, L1
L1: nop
loadI 1 => r2
loadI 1 => r11
cmp_EQ r2, r11 => r12
cbr r12 -> L2, L3
L2: nop
loadI 0 => r2
loadI 0 => r0
subI r1, 2 => r13
cmp_LE r0, r13 => r14
cbr r14 -> L4, L5
L4: nop
loadI 0 => r15
subI r0, 0 => r16
add r15, r16 => r15
multI r15, 4 => r15
loadI 20 => r17
add r17, r15 => r17
load r17 => r18
addI r0, 1 => r19
loadI 0 => r20
subI r19, 0 => r21
add r20, r21 => r20
multI r20, 4 => r20
loadI 20 => r22
add r22, r20 => r22
load r22 => r23
cmp_GT r18, r23 => r24
cbr r24 -> L6, L7
L6: nop
loadI 1 => r2
loadI 0 => r25
subI r0, 0 => r26
add r25, r26 => r25
multI r25, 4 => r25
loadI 20 => r27
add r27, r25 => r27
load r27 => r28
i2i r28 => r3
loadI 0 => r29
i2i r26 => r30
add r29, r30 => r29
multI r29, 4 => r29
loadI 20 => r31
add r31, r29 => r31
addI r0, 1 => r32
loadI 0 => r33
subI r32, 0 => r34
add r33, r34 => r33
multI r33, 4 => r33
loadI 20 => r35
add r35, r33 => r35
load r35 => r36
store r36 => r31
i2i r32 => r37
loadI 0 => r38
i2i r34 => r39
add r38, r39 => r38
multI r38, 4 => r38
loadI 20 => r40
add r40, r38 => r40
store r3 => r40
L7: nop
addI r0, 1 => r0
cmp_LE r0, r13 => r41
cbr r41 -> L4, L5
L5: nop
loadI 1 => r11
cmp_EQ r2, r11 => r12
cbr r12 -> L2, L3
L3: nop
loadI 0 => r0
subI r1, 1 => r42
cmp_LE r0, r42 => r43
cbr r43 -> L9, L10
L9: nop
loadI 0 => r44
subI r0, 0 => r45
add r44, r45 => r44
multI r44, 4 => r44
loadI 20 => r46
add r46, r44 => r46
load r46 => r47
write r47
addI r0, 1 => r0
cmp_LE r0, r42 => r48
cbr r48 -> L9, L10
L10: nop
halt
