read => r6
loadI 47 => r7
cmp_GT r6, r7 => r8
cbr r8 -> L0, L1
L0: nop
loadI 0 => r9
write r9
br -> L2
L1: nop
loadI 0 => r2
subI r6, 1 => r10
cmp_LE r2, r10 => r11
cbr r11 -> L3, L4
L3: nop
loadI 0 => r3
loadI 1 => r4
loadI 0 => r5
loadI 2 => r12
cmp_LT r2, r12 => r13
cbr r13 -> L5, L6
L5: nop
i2i r2 => r0
br -> L7
L6: nop
loadI 2 => r1
cmp_LE r1, r2 => r14
cbr r14 -> L8, L9
L8: nop
add r4, r5 => r15
i2i r15 => r3
i2i r4 => r5
i2i r3 => r4
addI r1, 1 => r1
cmp_LE r1, r2 => r16
cbr r16 -> L8, L9
L9: nop
i2i r3 => r0
br -> L7
L7: nop
write r0
addI r2, 1 => r2
cmp_LE r2, r10 => r17
cbr r17 -> L3, L4
L4: nop
br -> L2
L2: nop
halt
